{
    "version": 20230618.1,
    "updatetime": "2023年6月6日 16:14:37",
    "content": "公告内容：\n新增：淘任务.\n修复：一些bug.\n请关注云盘链接\n请更新到最新版本",
    "url": "https://mwzs.lanzouf.com/b060s8asb#1111",
    "config": "b",
    "pz":{
        "a":"服务器脚本更新中,请稍候再试",
        "b":"服务器配置获取成功，脚本加载中。。",
        "c":"本次活动已结束，下次活动见",
        "d":"当前版本已停用" ,
        "e":"备用",
        "f":"备用",
        "g":"备用"
    }
}
